{
	"credit": "Made with Blockbench",
	"textures": {
		"0": "solar/solar_base",
		"1": "solar/solar_2",
		"2": "solar/solar_simple",
		"3": "solar/solar_bottom",
		"particle": "solar/solar_base"
	},
	"elements": [
		{
			"from": [1, 0, 1],
			"to": [15, 1, 15],
			"faces": {
				"north": {"uv": [1, 15, 15, 16], "texture": "#0"},
				"east": {"uv": [1, 15, 15, 16], "texture": "#0"},
				"south": {"uv": [1, 15, 15, 16], "texture": "#0"},
				"west": {"uv": [1, 15, 15, 16], "texture": "#0"},
				"up": {"uv": [1, 1, 15, 15], "texture": "#0"},
				"down": {"uv": [1, 1, 15, 15], "texture": "#0"}
			}
		},
		{
			"from": [0, 0, 7],
			"to": [1, 9, 9],
			"faces": {
				"north": {"uv": [2, 1, 3, 10], "texture": "#1"},
				"east": {"uv": [0, 1, 2, 10], "texture": "#1"},
				"south": {"uv": [2, 1, 3, 10], "texture": "#1"},
				"west": {"uv": [0, 1, 2, 10], "texture": "#1"},
				"up": {"uv": [3, 0, 4, 2], "texture": "#1"},
				"down": {"uv": [3, 0, 4, 2], "texture": "#1"}
			}
		},
		{
			"from": [15, 0, 7],
			"to": [16, 9, 9],
			"faces": {
				"north": {"uv": [2, 1, 3, 10], "texture": "#1"},
				"east": {"uv": [0, 1, 2, 10], "texture": "#1"},
				"south": {"uv": [2, 1, 3, 10], "texture": "#1"},
				"west": {"uv": [0, 1, 2, 10], "texture": "#1"},
				"up": {"uv": [3, 0, 4, 2], "texture": "#1"},
				"down": {"uv": [3, 0, 4, 2], "texture": "#1"}
			}
		},
		{
			"from": [1, 6, 1],
			"to": [15, 7, 15],
			"faces": {
				"north": {"uv": [0, 14, 14, 15], "texture": "#2"},
				"east": {"uv": [0, 14, 14, 15], "texture": "#2"},
				"south": {"uv": [0, 14, 14, 15], "texture": "#2"},
				"west": {"uv": [0, 14, 14, 15], "texture": "#2"},
				"up": {"uv": [0, 0, 14, 14], "texture": "#2"},
				"down": {"uv": [0, 0, 14, 14], "texture": "#3"}
			}
		}
	]
}