{
	"credit": "Made with Blockbench",
	"textures": {
		"0": "electricity_meter/electricity_meter",
		"particle": "electricity_meter/electricity_meter"
	},
	"elements": [
		{
			"from": [3, 3, 13],
			"to": [13, 13, 16],
			"faces": {
				"north": {"uv": [0, 0, 10, 10], "texture": "#0"},
				"east": {"uv": [10, 0, 13, 10], "texture": "#0"},
				"west": {"uv": [10, 0, 13, 10], "texture": "#0"},
				"up": {"uv": [0, 10, 10, 13], "texture": "#0"},
				"down": {"uv": [0, 10, 10, 13], "texture": "#0"}
			}
		}
	],
	"display": {}
}