{
	"credit": "Made with Blockbench",
	"textures": {
		"0": "mpmod:blocks/rail",
		"1": "mpmod:blocks/rail_side",
		"particle": "mpmod:blocks/rail"
	},
	"elements": [
		{
			"from": [6.5, 0, 0],
			"to": [9.5, 1, 6.5],
			"faces": {
				"north": {"uv": [0, 0, 2, 1], "texture": "#1"},
				"east": {"uv": [0, 0, 6.5, 1], "texture": "#1"},
				"south": {"uv": [0, 0, 2, 1], "texture": "#0"},
				"west": {"uv": [0, 0, 6.5, 1], "texture": "#1"},
				"up": {"uv": [1, 0, 4, 6.5], "texture": "#0"},
				"down": {"uv": [1, 0, 4, 6.5], "texture": "#0"}
			}
		}
	]
}