{
	"credit": "Made with Blockbench",
	"textures": {
		"2": "mpmod:blocks/structure_jib",
		"5": "mpmod:blocks/structure_top"
	},
	"elements": [
		{
			"from": [0, 0, 0],
			"to": [16, 8, 0],
			"faces": {
				"north": {"uv": [0, 8, 16, 16], "texture": "#2", "cullface": "north"},
				"south": {"uv": [0, 8, 16, 16], "texture": "#2"}
			}
		},
		{
			"from": [0, 0, 16],
			"to": [16, 8, 16],
			"faces": {
				"north": {"uv": [0, 8, 16, 16], "texture": "#2"},
				"south": {"uv": [0, 8, 16, 16], "texture": "#2", "cullface": "south"}
			}
		},
		{
			"from": [0, 0, 0],
			"to": [0, 8, 16],
			"faces": {
				"east": {"uv": [0, 8, 16, 16], "texture": "#2"},
				"west": {"uv": [0, 8, 16, 16], "texture": "#2", "cullface": "west"}
			}
		},
		{
			"from": [16, 0, 0],
			"to": [16, 8, 16],
			"faces": {
				"east": {"uv": [0, 8, 16, 16], "texture": "#2", "cullface": "east"},
				"west": {"uv": [0, 8, 16, 16], "texture": "#2"}
			}
		},
		{
			"from": [0, 0, 0],
			"to": [16, 0, 16],
			"faces": {
				"up": {"uv": [0, 0, 16, 16], "texture": "#5"},
				"down": {"uv": [0, 0, 16, 16], "texture": "#5", "cullface": "down"}
			}
		}
	]
}