{
	"parent": "block/block",
	"textures": {
		"0": "mpmod:blocks/pgmr_side",
		"1": "mpmod:blocks/pgmr_kbrd",
		"2": "mpmod:blocks/pgmr_side2",
		"3": "mpmod:blocks/pgmr_base",
		"4": "mpmod:blocks/pgmr_back",
		"particle": "mpmod:blocks/pgmr_base"
	},
	"elements": [
		{
			"from": [1, 0, 1],
			"to": [15, 2, 15],
			"faces": {
				"north": {"uv": [0, 14, 14, 16], "texture": "#3"},
				"east": {"uv": [0, 14, 14, 16], "texture": "#3"},
				"south": {"uv": [0, 14, 14, 16], "texture": "#3"},
				"west": {"uv": [0, 14, 14, 16], "texture": "#3"},
				"up": {"uv": [0, 0, 14, 14], "texture": "#3"},
				"down": {"uv": [0, 0, 14, 14], "texture": "#3"}
			}
		},
		{
			"from": [5, 2, 9],
			"to": [11, 3, 13],
			"faces": {
				"north": {"uv": [0, 0, 6, 1], "texture": "#3"},
				"east": {"uv": [0, 0, 4, 1], "texture": "#3"},
				"south": {"uv": [0, 0, 6, 1], "texture": "#3"},
				"west": {"uv": [0, 0, 4, 1], "texture": "#3"},
				"up": {"uv": [5, 5, 11, 9], "texture": "#3"}
			}
		},
		{
			"from": [2, 4, 8],
			"to": [14, 13, 14],
			"faces": {
				"north": {"uv": [0, 0, 12, 9], "texture": "#0"},
				"east": {"uv": [0, 0, 6, 9], "texture": "#2"},
				"south": {"uv": [0, 0, 12, 9], "texture": "#4"},
				"west": {"uv": [0, 0, 6, 9], "texture": "#2"},
				"up": {"uv": [0, 9, 12, 15], "texture": "#0"},
				"down": {"uv": [0, 9, 12, 15], "texture": "#0"}
			}
		},
		{
			"from": [2, 2, 2],
			"to": [14, 3, 6],
			"faces": {
				"north": {"uv": [0, 4, 12, 5], "texture": "#1"},
				"east": {"uv": [0, 5, 4, 6], "texture": "#1"},
				"south": {"uv": [0, 4, 12, 5], "texture": "#1"},
				"west": {"uv": [0, 5, 4, 6], "texture": "#1"},
				"up": {"uv": [0, 0, 12, 4], "texture": "#1"}
			}
		},
		{
			"from": [5.5, 3, 9.5],
			"to": [10.5, 4, 12.5],
			"faces": {
				"north": {"uv": [0, 0, 5, 1], "texture": "#3"},
				"east": {"uv": [0, 0, 3, 1], "texture": "#3"},
				"south": {"uv": [0, 0, 5, 1], "texture": "#3"},
				"west": {"uv": [0, 0, 3, 1], "texture": "#3"}
			}
		}
	]
}