{
	"format_version": "1.10.0",
	"geometry.modelplacer": {
		"texturewidth": 16,
		"textureheight": 16,
		"visible_bounds_width": 2,
		"visible_bounds_height": 1,
		"visible_bounds_offset": [0, 0.5, 0],
		"bones": [
			{
				"name": "bone",
				"pivot": [0, 0, 0],
				"cubes": [
					{"origin": [-10, 6, -7], "size": [20, 1, 23], "uv": [0, 0]},
					{"origin": [-10, 1, -8], "size": [20, 15, 1], "uv": [0, 0]},
					{"origin": [9, 1, -16], "size": [1, 9, 8], "uv": [0, 0]},
					{"origin": [-10, 1, -16], "size": [1, 9, 8], "uv": [0, 0]},
					{"origin": [-10, 1, -17], "size": [20, 9, 1], "uv": [0, 0]},
					{"origin": [-10, 10, -17], "size": [20, 1, 9], "uv": [0, 0]},
					{"origin": [-7, 1, -7], "size": [14, 5, 23], "uv": [0, 0]}
				]
			}
		]
	}
}