{
	"credit": "Made with Blockbench",
	"textures": {
		"0": "trashcan/trashcan2",
		"1": "trashcan/trashcan2_bottom",
		"particle": "trashcan/trashcan2"
	},
	"elements": [
		{
			"from": [2, 0, 2],
			"to": [14, 13, 14],
			"faces": {
				"north": {"uv": [0, 3, 12, 16], "texture": "#0"},
				"east": {"uv": [0, 3, 12, 16], "texture": "#0"},
				"south": {"uv": [0, 3, 12, 16], "texture": "#0"},
				"west": {"uv": [0, 3, 12, 16], "texture": "#0"},
				"up": {"uv": [1, 1, 13, 13], "texture": "#1"},
				"down": {"uv": [1, 1, 13, 13], "texture": "#1"}
			}
		},
		{
			"from": [1, 13, 1],
			"to": [15, 15, 15],
			"faces": {
				"north": {"uv": [0, 1, 14, 3], "texture": "#0"},
				"east": {"uv": [0, 1, 14, 3], "texture": "#0"},
				"south": {"uv": [0, 1, 14, 3], "texture": "#0"},
				"west": {"uv": [0, 1, 14, 3], "texture": "#0"},
				"up": {"uv": [0, 0, 14, 14], "texture": "#1"},
				"down": {"uv": [0, 0, 14, 14], "texture": "#1"}
			}
		},
		{
			"from": [8, 15, 6],
			"to": [8, 17, 10],
			"faces": {
				"east": {"uv": [12, 14, 16, 16], "texture": "#0"},
				"west": {"uv": [12, 14, 16, 16], "texture": "#0"}
			}
		}
	]
}