{
	"credit": "Made with Blockbench",
	"elements": [
		{
			"from": [7, 22, 7],
			"to": [16, 30, 16],
			"color": 3,
			"faces": {
				"north": {"uv": [0, 0, 9, 8], "texture": "#missing"},
				"east": {"uv": [0, 0, 9, 8], "texture": "#missing"},
				"south": {"uv": [0, 0, 9, 8], "texture": "#missing"},
				"west": {"uv": [0, 0, 9, 8], "texture": "#missing"},
				"up": {"uv": [0, 0, 9, 9], "texture": "#missing"},
				"down": {"uv": [0, 0, 9, 9], "texture": "#missing"}
			}
		},
		{
			"from": [0, 16, 8],
			"to": [7, 32, 16],
			"color": 0,
			"faces": {
				"north": {"uv": [0, 0, 7, 16], "texture": "#missing"},
				"east": {"uv": [0, 0, 8, 16], "texture": "#missing"},
				"south": {"uv": [0, 0, 7, 16], "texture": "#missing"},
				"west": {"uv": [0, 0, 8, 16], "texture": "#missing"},
				"up": {"uv": [0, 0, 7, 8], "texture": "#missing"},
				"down": {"uv": [0, 0, 7, 8], "texture": "#missing"}
			}
		},
		{
			"from": [0, 0, 0],
			"to": [7, 10, 16],
			"color": 0,
			"faces": {
				"north": {"uv": [0, 0, 7, 10], "texture": "#missing"},
				"east": {"uv": [0, 0, 16, 10], "texture": "#missing"},
				"south": {"uv": [0, 0, 7, 10], "texture": "#missing"},
				"west": {"uv": [0, 0, 16, 10], "texture": "#missing"},
				"up": {"uv": [0, 0, 7, 16], "texture": "#missing"},
				"down": {"uv": [0, 0, 7, 16], "texture": "#missing"}
			}
		},
		{
			"from": [7, 0, 0],
			"to": [16, 16, 16],
			"color": 3,
			"faces": {
				"north": {"uv": [0, 0, 9, 16], "texture": "#missing"},
				"east": {"uv": [0, 0, 16, 16], "texture": "#missing"},
				"south": {"uv": [0, 0, 9, 16], "texture": "#missing"},
				"west": {"uv": [0, 0, 16, 16], "texture": "#missing"},
				"up": {"uv": [0, 0, 9, 16], "texture": "#missing"},
				"down": {"uv": [0, 0, 9, 16], "texture": "#missing"}
			}
		},
		{
			"from": [0, 10, 8],
			"to": [7, 16, 16],
			"color": 0,
			"faces": {
				"north": {"uv": [0, 0, 7, 6], "texture": "#missing"},
				"east": {"uv": [0, 0, 8, 6], "texture": "#missing"},
				"south": {"uv": [0, 0, 7, 6], "texture": "#missing"},
				"west": {"uv": [0, 0, 8, 6], "texture": "#missing"},
				"up": {"uv": [0, 0, 7, 8], "texture": "#missing"},
				"down": {"uv": [0, 0, 7, 8], "texture": "#missing"}
			}
		},
		{
			"from": [0, 16, 7],
			"to": [1, 32, 8],
			"color": 0,
			"faces": {
				"north": {"uv": [0, 0, 1, 16], "texture": "#missing"},
				"east": {"uv": [0, 0, 1, 16], "texture": "#missing"},
				"south": {"uv": [0, 0, 1, 16], "texture": "#missing"},
				"west": {"uv": [0, 0, 1, 16], "texture": "#missing"},
				"up": {"uv": [0, 0, 1, 1], "texture": "#missing"},
				"down": {"uv": [0, 0, 1, 1], "texture": "#missing"}
			}
		},
		{
			"from": [0, 10, 7],
			"to": [1, 16, 8],
			"color": 0,
			"faces": {
				"north": {"uv": [0, 0, 1, 6], "texture": "#missing"},
				"east": {"uv": [0, 0, 1, 6], "texture": "#missing"},
				"south": {"uv": [0, 0, 1, 6], "texture": "#missing"},
				"west": {"uv": [0, 0, 1, 6], "texture": "#missing"},
				"up": {"uv": [0, 0, 1, 1], "texture": "#missing"},
				"down": {"uv": [0, 0, 1, 1], "texture": "#missing"}
			}
		},
		{
			"from": [12, 16, 9],
			"to": [14, 22, 14],
			"color": 0,
			"faces": {
				"north": {"uv": [0, 0, 2, 6], "texture": "#missing"},
				"east": {"uv": [0, 0, 5, 6], "texture": "#missing"},
				"south": {"uv": [0, 0, 2, 6], "texture": "#missing"},
				"west": {"uv": [0, 0, 5, 6], "texture": "#missing"},
				"up": {"uv": [0, 0, 2, 5], "texture": "#missing"},
				"down": {"uv": [0, 0, 2, 5], "texture": "#missing"}
			}
		}
	]
}